…
  df <- df %>% 
    mutate(variable = my_string[1,2],
           year = my_string[1,3])
  names(df) <- c("x","y","z","variable","year")
  df
}
df_final <- purrr::map_df(files,my_xlsx_reader)
df_final$variable %>% unique()
#> [1] "lai"     "lst_amp" "ndvi"    "sif"     "xco2"
df_final$year %>% unique()
#> [1] "2015" "2016" "2017" "2018" "2019" "2020"

df_final %>% 
  pivot_wider(names_from = variable, values_from = z)
#> # A tibble: 62,514 × 8
#>          x       y year    lai lst_amp  ndvi   sif  xco2
#>      <dbl>   <dbl> <chr> <dbl>   <dbl> <dbl> <dbl> <dbl>
#>  1 2895911 8521695 2015   3.52    7.43 0.626 0.785  402.
#>  2 2915911 8521695 2015   3.52    7.47 0.628 0.785  402.
#>  3 2935911 8521695 2015   3.52    7.52 0.629 0.785  402.
#>  4 2955911 8521695 2015   3.52    7.57 0.631 0.785  402.
#>  5 2975911 8521695 2015   3.52    7.62 0.633 0.785  402.
#>  6 2995911 8521695 2015   3.52    7.66 0.636 0.785  402.
#>  7 3015911 8521695 2015   3.52    7.71 0.639 0.785  402.
#>  8 3035911 8521695 2015   3.52    7.75 0.642 0.785  402.
#>  9 3055911 8521695 2015   3.52    7.78 0.646 0.785  402.
#> 10 3075911 8521695 2015   3.52    7.80 0.649 0.785  402.
#> # ℹ 62,504 more rows
```
